<?xml version="1.0" encoding="utf-8"?>
<!-- Generator: Adobe Illustrator 17.0.0, SVG Export Plug-In . SVG Version: 6.00 Build 0)  -->
<!DOCTYPE svg PUBLIC "-//W3C//DTD SVG 1.1//EN" "http://www.w3.org/Graphics/SVG/1.1/DTD/svg11.dtd">
<svg version="1.1" id="Layer_1" xmlns="http://www.w3.org/2000/svg" xmlns:xlink="http://www.w3.org/1999/xlink" x="0px" y="0px"
	 width="425.2px" height="283.46px" viewBox="0 0 425.2 283.46" enable-background="new 0 0 425.2 283.46" xml:space="preserve">
<g>
	<g>
		<g>
			<g id="b4Ny3E7PN">
				<g opacity="0">
					<polyline fill="#010101" points="65.478,118.156 65.478,185.858 103.732,131.699 46.351,77.536 46.351,118.156 					"/>
				</g>
				<g>
					<polygon fill="#EE3424" points="56.964,205.047 56.964,118.418 69.131,118.418 69.131,167.193 93.509,132.679 50.004,91.614 
						50.004,118.418 37.837,118.418 37.837,63.982 109.094,131.243 					"/>
				</g>
			</g>
		</g>
	</g>
</g>
<g>
	<path d="M113.236,118.488h41.579c2.537,0,4.698,0.86,6.484,2.58c1.785,1.72,2.678,3.801,2.678,6.245v31.227
		c0,2.444-0.893,4.527-2.678,6.245c-1.786,1.721-3.947,2.58-6.484,2.58h-41.579V118.488z M156.365,158.541v-31.227
		c0-0.407-0.153-0.757-0.458-1.052c-0.306-0.294-0.67-0.441-1.092-0.441h-32.417c-0.423,0-0.788,0.147-1.092,0.441
		c-0.306,0.295-0.458,0.645-0.458,1.052v31.227c0,0.407,0.152,0.759,0.458,1.052c0.305,0.295,0.67,0.442,1.092,0.442h32.417
		c0.423,0,0.786-0.147,1.092-0.442C156.212,159.299,156.365,158.948,156.365,158.541z"/>
	<path d="M218.592,127.252v13.713c0,2.399-0.893,4.47-2.678,6.212c-1.787,1.742-3.946,2.613-6.484,2.613h-5.143l14.306,16.429v1.018
		h-9.021L194.35,149.79h-17.336c-0.377,0-0.893-0.045-1.551-0.136v17.582h-7.611v-48.81h41.578c2.538,0,4.698,0.872,6.484,2.614
		C217.699,122.783,218.592,124.853,218.592,127.252z M177.013,142.458h32.416c0.423,0,0.788-0.146,1.094-0.441
		c0.304-0.294,0.458-0.645,0.458-1.052v-13.713c0-0.407-0.154-0.757-0.458-1.052c-0.306-0.294-0.671-0.441-1.094-0.441h-32.416
		c-0.423,0-0.788,0.147-1.092,0.441c-0.306,0.295-0.458,0.645-0.458,1.052v13.713c0,0.408,0.152,0.759,0.458,1.052
		C176.226,142.311,176.591,142.458,177.013,142.458z"/>
	<path d="M222.714,167.236v-48.878h7.611v48.878H222.714z"/>
	<path d="M234.679,118.315h46.513v7.332H242.29v13.441h31.29v7.332h-31.29v20.773h-7.612V118.315z"/>
	<path d="M285.506,118.356h46.513v7.332h-38.901v13.441h31.29v7.332h-31.29v20.773h-7.612V118.356z"/>
	<path d="M336.263,118.488h50.74v7.332h-21.564v41.546h-7.612V125.82h-21.564V118.488z"/>
</g>
</svg>
